1102AA,,1102AB,,1102AN,,1102AP,,1102AQ,,1102AR,,
1102BA,,1102BC,,1102BD,,1102BE,,1102BF,,1102BH,,
1102BI,,1102BJ,,1102BK,,1102BL,,1102BM,,1102BN,,
1102BQ,,1102BR,,1102BS,,1102BT,,1102BU,,1102BV,,
1102BW,,1102BX,,1102BY,,1102BZ,,1102CA,,1102CB,,
1102CC,,1102CD,,1102CE,,1102CF,,1102CG,,1102CH,,
1102CI,,1102CJ,,1102CK,,1102CL,,1102CM,,1102CN,,
1102TR,,1102TR2,,1500AB,,1500BC,,1500BE,,1500BF,,
1500BG,,1500BH,,1500BI,,1500BJ,,1500BN,,1500BO,,
1500BP,,1500BQ,,1500BR,,1500BZ,,1500CA,,1500CB,,
1500CC,,1500CD,,1501AA,,1501AB,,1501AC,,1501AD,,
1501AE,,1501AF,,1501AG,,1501AH,,1501AI,,1502AA,,
1502AB,,1800AL,,1800AM,,1800AN,,1800AO,,1800AP,,
1800AQ,,1800AR,,1800AS,,1800AT,,1800AU,,1800AV,,
1800BC,,1800BD,,1800BE,,1800BF,,1800BH,,1800BI,,
1800BL,,1800BN,,1800BP,,1800BQ,,1800BR,,1800BS,,
1800BT,,1800BU,,1800BV,,1800BW,,1800BX,,1800BY,,
1800BZ,,1800CA,,1800CB,,1800CC,,1800CD,,1800CE,,
1800CF,,1800CG,,1800CH,,1800CI,,1800CJ,,1800CK,,
1800CL,,1800CM,,1800CN,,1900AC,,1900AD,,1900AE,,
1900AF,,1900AG,,1900AH,,1900AJ,,1900AK,,1900AL,,
3004AE,,3004AK,,3004BE,,3004BI,,3004BM,,3004BO,,
3004BP,,3004BQ,,3004BS,,3004BT,,3004BV,,3004BW,,
3004CA,,3004CB,,3004CC,,3004CD,,3004CE,,3004CF,,
3004CG,,3004CH,,3004CI,,3004CJ,,3004CK,,3004CL,,
3004CM,,3004CN,,3004CO,,3004ZI-LHS,,3004ZK-LHS,,3007AG,,
3007AT,,3008BC,,3008BD,,3010AG,,3010AL,,3010AM,,
3010AO,,3010AP,,3010AQ,,3010AR,,3010AS,,3010AT,,
3010AU,,3010AV,,3010AW,,3010AX,,3010AY,,3010AZ,,
3010BA,,3010BB,,3010KR-FSC,,3010KR-LHS,,3010YA,,3010ZM,,
3019AC-FSC,,3022AA,,3022AF-FSC,,3022AG-FSC,,3022AH-FSC,,3022AJ-FSC,,
3022AK-FSC,,3022AL-FSC,,3023AJ-FSC,,3027AY,,3027BA,,3027BB,,
3027BE,,3027BE-FSC,,3027BF,,3027BG,,3027BI,,3027BJ,,
3027BK,,3027BL,,3027BM,,3027BO,,3027BP,,3027BT,,
3027BX,,3027BX-FSC,,3027BY,,3027BZ,,3027BZ-FSC,,3027CA,,
3027CA-FSC,,3027CB,,3027CC-FSC,,3027CD-FSC,,3027CE-FSC,,3027CF-FSC,,
3027CG,,3027CG-FSC,,3029AP,,3030AA-LHS,,3032AD-340-LHS,,3032AF,,
3032AG-340-LHS,,3032AH,,3032AO,,3032AP,,3032AQ,,3032AR,,
3032AS,,3032AT,,3032AW,,3032AX,,3032AZ,,3032BM,,
3032BN,,3032BO,,3032BP,,3032BQ,,3032BR,,3032BS,,
3032BT,,3032BU,,3032BV,,3032BW,,3032BX,,3032BY,,
3032BZ,,3032CA,,3032CD,,3032CE,,3032CG,,3033AE-FSC,,
3033AF-FSC,,3033AG-FSC,,3034AB-FSC-LHS,,3034AC-FSC-LHS,,3034AG-FSC,,3034AJ-FSC,,
3034AK-FSC,,3034AL-FSC,,3034AM-FSC,,3034AN-FSC,,3034AO-FSC,,3034TR,,
3035AB,,3035AC,,3035AE-FSC,,3035AF,,3035AG,,3035AH,,
3035AI,,3035AJ,,3035AK,,3035AL,,3035AM,,3035AN,,
3035AO,,3035AP,,3035AQ,,3035AR,,3035AW,,3035AX,,
3035AY,,3035AZ,,3035BA,,3035BB,,3035BD,,3035BE,,
3035BF,,3035BG,,3035BH,,3035BI,,3035TR,,3036AA,,
3036AB,,3036AC,,3036AD,,3036AF,,3040AF,,3040AG,,
3040AK,,3040AL,,3040AM,,3040AO,,3040AR,,3040AS,,
3040AT,,3040AU,,3040AV,,3040AW,,3040AX,,3040AY,,
3040AZ,,3040BB,,3040BD,,3040BE,,3040BF,,3040BG,,
3040BH,,3040BI,,3040BJ,,3040BK,,3040BL,,3040BM,,
3040BN,,3040BO,,3040BP,,3040BQ,,3040BR,,3040BS,,
3040BT,,3040BU,,3041AO,,3041AQ,,3041AR,,3041AT,,
3041AV,,3041AW,,3041BA,,3041BB,,3041BC,,3041BD,,
3043AA,,3043AB,,3043AC,,3044AA,,3044AB,,3044AC,,
3044AD,,3044AJ,,3044AK,,3045AA,,3045AB,,3045AC,,
3046AB-FSC,,3046AD-FSC,,3046AE-FSC,,3046AF-FSC,,3047AD,,3047AE,,
3047AF,,3047AG,,3047AH,,3047AI,,3047AJ,,3047AK,,
3047AL,,3047AO,,3047AP,,3047AQ,,3047AR,,3047AS,,
3047AV,,3047BA,,3047BB,,3047BC,,3047BE,,3047BF,,
3047BH,,3047BJ,,3048AC,,3050AC,,3050AD,,3050AE,,
3050AF,,3050AF-FSC,,3050AI,,3050AJ-FSC,,3054AL,,3054AO,,
3055AAFSC,,3055ABFSC,,3055ACFSC,,3055ADFSC,,3055AFFSC,,3056AE,,
3056AF,,3056AG,,3056AH,,3056AI,,3056AJ,,3056AK,,
3056AL,,3057AA,,3057AB,,3057AC,,3057AD,,3057AE,,
3057AF,,3057AG,,3057AH,,3057AI,,3058AA-FSC,,3058AB-FSC,,
3058ACFSC,,3058AD-FSC,,3058AE-FSC,,3058AF-FSC,,3058AG-FSC,,3058AJ-FSC,,
3064AA,,3064AB,,3064AC,,3064AD,,3064AE,,3065AA,,
3065AB,,3065AC,,3065AD,,3065AE,,3065AF,,3065AG,,
3065AI,,3065AJ,,3065AK,,3065AL,,3065AM,,3065AN,,
3065AO,,3065AP,,3065AQ,,3065AR,,3065AS,,3065AT,,
3066AA-FSC,,3066AB-FSC,,3067AA-FSC,,3067AB-FAC,,3067AC-FSC,,3067AD-FSC,,
3068AB,,3068AB-FSC,,3068AC,,3068AC-FSC,,3068AD,,3068AE,,
3068AE-FSC,,3068AF-FSC,,3068AG-FSC,,3068AI-FSC,,3069AA,,3069AB,,
3069AC,,3069AD,,3069AE,,3069AF,,3069AG,,3069AJ,,
3069AK,,3069AL,,3069AM,,3069AN,,3069AO,,3069AP,,
3069AQ,,3069AR,,3069AT,,3069AU,,3069AV,,3069AW,,
3069AX,,3069AY,,3069AZ,,3069BA,,3069BB,,3069BC,,
3069BE,,3069BF,,3070AA,,3070AB,,3070AC,,3070AD,,
3070AE,,3070AF,,3070AG,,3070AH,,3071AA,,3071AB,,
3071AC,,3071AD,,3071AE,,3071AF,,3071AG,,3071AH,,
3071AI,,3071AJ,,3071AK,,3071AL,,3071AM,,3072AA,,
3072AB,,3072AC,,3072AD,,3072AE,,3073AA,,3073AB,,
3073AC,,3073AD,,3073AE,,3074AA-FSC,,3074AB-FSC,,3074AC,,
3074AD-FSC,,3074AE-FSC,,3074AF-FSC,,3075AA-FSC,,3076AA-FSC,,3077AA,,
3078AB,,3078AC,,3078AD,,3079AA,,3079AB,,3079AC,,
3079AD,,3079AE,,3079AF,,3079AG,,3079AH,,3079AJ,,
3079AK,,3079AL,,3079AM,,3079AN,,3079AO,,3079AP,,
3079GCTR,,3079GCTR-310,,3079GCTR-340,,3081AA,,3081AB,,3081AC,,
3081AD,,3081AE,,3081AG-FSC,,3081AH-FSC,,3081AI-FSC,,3081GCTR,,
3082AA-FSC,,3082AB-FSC,,3082AC,,3082AC-FSC,,3083AA,,3103AK,,
3103AR,,3103AU,,3103AV,,3103AW,,3103AX,,3103AY,,
3103BC,,3103BE,,3103BF,,3103BI,,3103BJ,,3103BK,,
3103BM,,3103BN,,3103BO,,3103BP,,3103BQ,,3103BR,,
3104AM,,3104AN,,3104AO,,3104AP,,3107AH,,3107AJ,,
3107AK,,3107AL,,3107AM,,3107AN,,3107AO,,3107AP,,
3107AQ,,3107AR,,3107AS,,3107AT,,3107AU,,3107AV,,
3107AW,,3107AX,,3107AY,,3107AZ,,3107BA,,3107BB,,
3107BC,,3107BD,,3107BE,,3107BF,,3107KR-FSC,,3107KR-LHS,,
3108AH,,3115AW,,3115BA,,3115BB,,3115BC,,3115BI,,
3115BJ,,3115BK,,3115BL,,3115BL-FSC,,3115BN,,3115BQ,,
3115BR,,3115BS,,3115BT,,3115BU,,3115BV,,3115BX,,
3115BY,,3115BZ,,3115BZ-FSC,,3115CA,,3115CA-FSC,,3115CB,,
3115CB-FSC,,3115CC,,3115CD-FSC,,3115CE-FSC,,3115CF-FSC,,3115CG-FSC,,
3115CH-FSC,,3115CI-FSC,,3115CJ-FSC,,3115CW,,3118AA-LHS,,3118AB-LHS,,
3118AC-LHS,,3118AD-LHS,,3118AE-LHS,,3118AF-LHS,,3118AG-LHS,,3118AH-LHS,,
3118AI-LHS,,3118AY,,3118AZ,,3118BA,,3118BB,,3118BC,,
3118BD,,3118BH,,3118BI,,3118BJ,,3118BU,,3118BV,,
3118BW,,3118BX,,3118BY,,3118BZ,,3118CA,,3118CB,,
3118CC,,3118CD,,3118CE,,3118CF,,3118CG,,3118CH,,
3118CI,,3118CJ,,3118CK,,3118CL,,3118CO,,3118CP,,
3118CS,,3118CT,,3118CY,,3118CZ,,3118DA,,3119AC-FSC,,
3120AA-FSC,,3120AB-FSC,,3120AC-FSC,,3120AD-FSC,,3120AF-FSC,,3120AG-FSC,,
3120AH-FSC,,3120AI-FSC,,3120AJ-FSC,,3120AK-FSC,,3121AA-FSC-LHS,,3121AB,,
3121AC,,3121AD,,3121AE,,3121AF,,3121AG,,3121AH,,
3121AI,,3121AJ,,3121AK,,3121AL,,3121AM,,3121AO,,
3121AP,,3121AQ,,3121AR,,3121AS,,3121AT,,3121AU,,
3121AV,,3121AW,,3121AX,,3121AY,,3122AA,,3122AB,,
3122AC,,3122AD,,3124AA,,3124AB,,3124AE,,3124AF,,
3124AG,,3124AH,,3124AI,,3124AI-FSC,,3124AJ,,3124AK,,
3124AL,,3125AE,,3125AM,,3125AN,,3125AO,,3125AP,,
3125AQ,,3125AR,,3125AS,,3125AT,,3125AU,,3125AV,,
3125AW,,3125BC,,3125BD,,3125BE,,3127AD,,3127AE,,
3127AF,,3127AF-FSC,,3127AG,,3127AH,,3127AI,,3127AI-FSC,,
3127AJ,,3127AJ-FSC,,3127AK,,3127AK-FSC,,3127AL,,3127AL-FSC,,
3127AM,,3127AM-FSC,,3127AN,,3127AN-FSC,,3127AO,,3127AO-FSC,,
3127AP-FSC,,3128AA,,3128AB,,3128AD,,3128AE,,3128AF,,
3129AA,,3129AB,,3130AA,,3130AB,,3130AC,,3130AD,,
3130AE,,3130AF,,3130AG,,3130AH,,3130AJ,,3130AK,,
3130AL,,3130AM,,3130AN,,3130AO,,3130AP,,3131AB,,
3131AC,,3131AD,,3131AE,,3131AF,,3131AG,,3131AP,,
3131AQ,,3131AS,,3131AW,,3131AX,,3131AY,,3131AZ,,
3131BA,,3131BB,,3131BC,,3131BD,,3131BI,,3131BL,,
3131BM,,3131BN,,3131BO,,3131BP,,3131BS,,3131BT,,
3131BU,,3131BV,,3132AP,,3132AT,,3132AY,,3133AA,,
3133AB,,3133AC,,3133AD,,3133AE,,3133AF,,3133AG,,
3133AH,,3133AI,,3133AJ,,3133AK,,3133AL,,3133AM,,
3133AN,,3134AA,,3134AB,,3134AC,,3134AD,,3134AE,,
3134AG,,3134AH,,3134AI,,3134AJ,,3134AK,,3134AL,,
3134AM,,3134AN,,3134AO,,3134AP,,3134AQ,,3134AR,,
3135AA,,3135AB,,3135AC,,3135AD,,3135AE,,3135AF,,
3135AG,,3135AH,,3135AI,,3135AJ,,3135AK,,3135AM,,
3135AN,,3135AO,,3135AP,,3135AQ,,3135AR,,3135AS,,
3135AT,,3135AU,,3135AV,,3135AW,,3135AX,,3135AY,,
3135AZ,,3135BA,,3135BB,,3135BC,,3135BD,,3135BE,,
3136AA,,3136AB,,3136AC,,3136AC-FSC,,3136AD,,3136AE,,
3136AF,,3136AG,,3136AH,,3136AI,,3136AL,,3136AL-FSC,,
3136AM,,3136AN,,3136AO,,3136AP,,3136AQ,,3136AR,,
3136AS,,3136AT,,3136AU,,3137AA,,3137AB,,3137AC,,
3137AF,,3137AG,,3137AH,,3137AJ,,3137AK,,3137AL,,
3137AP,,3137AQ,,3137AR,,3137AS,,3138AA-FSC,,3138AB-FSC,,
3138AC-FSC,,3138AE-FSC,,3139AA-FSC,,3139AB-FSC,,3139AC-FSC,,3140AOREV,,
3140GCREVTR,,3140GCTR,,3141AA,,3141AC,,3141AD,,3141AE,,
3141AF,,3142AA,,3142AD,,3142AE,,3142AF,,3142AG,,
3142AH,,3142AI,,3142AJ,,3142AK,,3142AL,,3142GCTR,,
3142GTR,,3143AA,,3143AB,,3143AC,,3143AD,,3143AE,,
3143AF,,3143AG,,3143AH,,3143AI,,3143AJ,,3143AK,,
3143AL,,3143GCTR,,3143GCTR1,,3144AA-FSC,,3145AA-FSC,,3146AA-FSC,,
3146AB-FSC,,3146AC-FSC,,3146AD-FSC,,3146AE-FSC,,3146AF-FSC,,3146AG-FSC,,
3146AH-FSC,,3146AI-FSC,,3146AJ-FSC,,3146AK-FSC,,3146AL-FSC,,3146GCTR,,
3147AA-FSC,,3147AB-FSC,,3147AC-FSC,,3147AD-FSC,,3147AE-FSC,,3147AF-FSC,,
3147AG-FSC,,3147AH-FSC,,3147AJ-FSC,,3147AK-FSC,,3147AL-FSC,,3147AM-FSC,,
3148AA,,3202AD,,3202AE,,3202AG,,3203AD,,3203AE,,
3203AF,,3203AG,,3203AI,,3204AA,,3204AB,,3204AC,,
3204GCTR,,3205AA,,3205AC,,3206AA,,3206AB,,3207AA,,
3207AB,,3207GCTR,,3303AI,,3303AJ,,3310AB,,3311AF,,
3311AG,,3311AH,,3311AI,,3311AJ,,3311AJ-FSC,,3311AK-FSC,,
3311GCTR,,3315AA,,3315AE,,3317AB-FSC,,3317AC,,3317AD,,
3317AE,,3317AF,,3319AA,,3319AB,,3319AE,,3319AF,,
3319AG,,3319AH,,3321AH,,3321AI,,3321AJ,,3321AL,,
3321AM,,3321AS,,3322AB,,3324AB,,3325AA-FSC,,3327AA,,
3327AB,,3327AC,,3327AD,,3327AE,,3327AF,,3327AG,,
3328AA-FSC,,3329AA,,3329AB,,3329AC,,3329AD,,3329AE,,
3329AF,,3329AG,,3329AH,,3329AI,,3329AJ,,3329AL,,
3329AM,,3329AN,,3329AO,,3329ZZ,,3330AA,,3330AB,,
3331AA-FSC,,3332AA,,3333AA,,3333AB,,3333AC,,3334AA,,
3334AB,,3334AC,,3334AD,,3334AE,,3334AF,,3334AG,,
3334AH,,3334AI,,3334GCTR,,3334GCTR-340,,3334GCTR1,,5000AA,,
5301AA,,5301AB,,5301AK,,5301AM,,5301AN,,5301AO,,
5303AA,,5303AB,,5303AD,,5303AF,,5303AG,,5305AE,,
5307AA,,5307AB,,5308AB,,5309TR,,5500AB,,5500AC,,
5800AA-AD,,5801AA-AD,,5803AA,,5803AB,,5803AC,,5804AA-AB,,
5804AF,,5804AJ-AK,,5805AA-AB,,5805AF,,5805AG-AH,,5806AA-AD,,
5807AA-AD,,6000AA,,6000AB,,6004AA,,6005AB,,6005KR,,
6005WH,,6006AA,,6006AB,,6006KR,,6006WH,,6007AA,,
6008AC,,6009AC,,6014AA,,6014AB,,6014AC,,6014AE,,
6015AA,,6015AB,,6015AC,,6015AD,,6015AF,,6017AA,,
6018AA,,7004AA,,7005AA,,7005AB,,7006AA,,7006AB,,
7007AA-FSC,,7007AB-FSC,,7007AC-FSC,,7007AD-FSC,,7007AE-FSC,,7007AF-FSC,,
7007AG-FSC,,7007AH-FSC,,7007AL,,7008AA,,7009AA,,7010AA,,
7011AA,,7012AA,,7012AB,,7014AA-FSC,,7014AB-FSC,,7014AC-FSC,,
7014AD-FSC,,7014AE-FSC,,7014AF-FSC,,7014AG-FSC,,7014AH-FSC,,7014TR70,,
7015AA,,7016AA,,7017TR1,,7018AA,,7018AB,,7018AC,,
7018AD,,7018AE,,7018AH,,7019AA,,7019AB,,7020AA,,
7020AB,,7020AC,,7020AD,,7021AA,,7021AB,,7021AC,,
7022AA,,7022AB,,7023AA,,7023AB,,7024AA,,7024AB,,
7024AC,,7024AD,,7025AA,,7026AA,,7026AB,,7027AA,,
7027AB,,7028TR,,7029TR1,,7029TR2,,7539TR,,7804DC,,
8001AA,,8001AB,,8001AC,,